<?xml version="1.0" encoding="utf-8"?>
<!-- Generator: Adobe Illustrator 21.0.0, SVG Export Plug-In . SVG Version: 6.00 Build 0)  -->
<svg version="1.0" id="Livello_1" xmlns="http://www.w3.org/2000/svg" xmlns:xlink="http://www.w3.org/1999/xlink" x="0px" y="0px"
	 viewBox="0 0 153.5 90" style="enable-background:new 0 0 153.5 90;" xml:space="preserve">
<style type="text/css">
	.st0{fill:#FFFFFF;}
	.st1{fill:none;}
	.st2{fill:#1B75BB;}
	.st3{fill:#2B388F;}
	.st4{fill:#009345;}
	.st5{fill:#37B34A;}
	.st6{fill:#B01117;}
	.st7{fill:#848484;}
</style>
<g>
	<g>
		<path class="st0" d="M3.5,83.2V90H0V71.7h15c1,0,1.9,0.1,2.6,0.3c0.7,0.2,1.3,0.5,1.8,0.9c0.5,0.4,0.8,0.9,1,1.4
			c0.2,0.5,0.3,1.1,0.3,1.8v2.7c0,0.7-0.1,1.3-0.3,1.8c-0.2,0.5-0.5,1-1,1.4c-0.5,0.4-1.1,0.7-1.8,0.9c-0.7,0.2-1.6,0.3-2.6,0.3H3.5
			z M17.3,76.1c0-1.1-0.8-1.7-2.3-1.7H3.5v6.1H15c1.5,0,2.3-0.6,2.3-1.7V76.1z"/>
		<path class="st0" d="M44.4,90l-4.3-8.2h-9.6V90H27V71.7h15.5c1,0,1.9,0.1,2.6,0.3c0.7,0.2,1.3,0.5,1.8,0.9c0.5,0.4,0.8,0.9,1,1.4
			c0.2,0.5,0.3,1.1,0.3,1.8v1.3c0,1.2-0.3,2.2-1,2.9c-0.7,0.8-1.9,1.3-3.5,1.4l4.3,8.2H44.4z M44.9,76.1c0-1.1-0.8-1.7-2.3-1.7H30.5
			v4.7h12.1c1.5,0,2.3-0.6,2.3-1.7V76.1z"/>
		<path class="st0" d="M60.6,90c-1,0-1.9-0.1-2.6-0.3c-0.7-0.2-1.3-0.5-1.8-0.9c-0.5-0.4-0.8-0.9-1-1.4c-0.2-0.5-0.3-1.1-0.3-1.8
			v-9.5c0-0.7,0.1-1.3,0.3-1.8c0.2-0.5,0.5-1,1-1.4c0.5-0.4,1.1-0.7,1.8-0.9c0.7-0.2,1.6-0.3,2.6-0.3h12.1c1,0,1.9,0.1,2.6,0.3
			c0.7,0.2,1.3,0.5,1.8,0.9c0.5,0.4,0.8,0.9,1,1.4c0.2,0.5,0.3,1.1,0.3,1.8v9.5c0,0.7-0.1,1.3-0.3,1.8c-0.2,0.5-0.5,1-1,1.4
			c-0.5,0.4-1.1,0.7-1.8,0.9c-0.7,0.2-1.6,0.3-2.6,0.3H60.6z M75,76.1c0-1.1-0.8-1.7-2.3-1.7H60.6c-1.5,0-2.3,0.6-2.3,1.7v9.5
			c0,1.1,0.8,1.7,2.3,1.7h12.1c1.5,0,2.3-0.6,2.3-1.7V76.1z"/>
		<path class="st0" d="M110.2,90V77.2L100.9,90h-2.8l-9.3-12.8V90h-3.2V71.7h3.2l10.9,14.9l10.8-14.9h3V90H110.2z"/>
		<path class="st0" d="M120.8,90V71.7h3.5V90H120.8z"/>
		<path class="st0" d="M131.9,90v-2.7h15.9c1.5,0,2.3-0.6,2.3-1.7v-2.3c0-1.1-0.8-1.7-2.3-1.7H137c-1,0-1.9-0.1-2.6-0.3
			c-0.7-0.2-1.3-0.5-1.8-0.9c-0.5-0.4-0.8-0.9-1-1.4c-0.2-0.5-0.3-1.1-0.3-1.8v-1.1c0-0.7,0.1-1.3,0.3-1.8c0.2-0.5,0.5-1,1-1.4
			c0.5-0.4,1.1-0.7,1.8-0.9c0.7-0.2,1.6-0.3,2.6-0.3h15.5v2.7H137c-1.5,0-2.3,0.6-2.3,1.7v1.1c0,1.1,0.8,1.7,2.3,1.7h10.8
			c1,0,1.9,0.1,2.6,0.3c0.7,0.2,1.3,0.5,1.8,0.9c0.5,0.4,0.8,0.9,1,1.4c0.2,0.5,0.3,1.1,0.3,1.8v2.3c0,0.7-0.1,1.3-0.3,1.8
			c-0.2,0.5-0.5,1-1,1.4c-0.5,0.4-1.1,0.7-1.8,0.9c-0.7,0.2-1.6,0.3-2.6,0.3H131.9z"/>
	</g>
	<g>
		<path class="st1" d="M81.9,26c-3.3-1-5.9-2-7.8-2.7C76,24,78.6,25,81.9,26L81.9,26z"/>
		<path class="st1" d="M91.8,28.5C91.8,28.5,91.8,28.5,91.8,28.5c0.9,0.2,1.7,0.3,2.6,0.5h0C93.5,28.8,92.7,28.6,91.8,28.5z"/>
		<path class="st2" d="M47.7,49.2c7.3-7.7,15.1-12.5,22.6-15.6c-1.8-0.5-3.6-0.8-4.9-1C54.1,40.4,47.7,49.2,47.7,49.2z"/>
		<path class="st2" d="M122.3,35.6c-4-0.5-9.2-0.3-15.7,1.2c-1.6,0.4-3.2,0.7-4.7,0.9c0,0,0,0,0,0c-10.8,2.4-23.1-0.4-27.8-2.6
			c-6.9,3.2-14.4,7.7-22,14.2C29.1,69.2,0,60.7,0,60.7s27.3,13,61.5-7.2c3.6-2.1,7.4-4,11.3-5.5c3.7-1.5,7.6-2.7,11.5-3.6
			c3.7-0.9,7.5-1.5,11.3-1.8c0.8-0.1,1.6-0.1,2.4-0.2c0.8-0.1,1.7-0.1,2.5-0.1c3-0.1,6,0,9.1,0.3c1.4,0.1,2.7,0.2,4.1,0.4
			c2.4,0.3,4.8,0.9,7.1,1.7c2.1,0.8,4.1,2,5.6,3.6c2,2.2,3,5.1,3.3,8c0,0.2,0,0.5,0.1,0.7c0.3,5.8-2.9,8.4-5.8,9.5c3-1,5.3-2.4,7-4
			C130.9,62.4,141.1,44.5,122.3,35.6z"/>
		<path class="st2" d="M94.5,29c1.3,0.2,2.6,0.4,3.9,0.6c0,0,0,0,0,0C97,29.4,95.7,29.2,94.5,29L94.5,29z"/>
		<path class="st2" d="M81.9,26L81.9,26c2.8,0.8,6.1,1.7,9.9,2.5c0,0,0,0,0,0C88,27.7,84.7,26.8,81.9,26z"/>
		<path class="st3" d="M101.8,37.7C101.9,37.7,101.9,37.7,101.8,37.7c-12,1.9-19.6-0.7-25.8-3.4c-0.7,0.3-1.3,0.6-2,0.9
			C78.8,37.3,91,40.2,101.8,37.7z"/>
		<path class="st3" d="M65.4,32.6c1.3,0.2,3.1,0.4,4.9,1c0.7-0.3,1.4-0.6,2.2-0.9c-1.5-0.7-3.1-1.3-4.6-1.8
			C67,31.5,66.2,32,65.4,32.6z"/>
		<path class="st4" d="M91.8,28.5c0.9,0.2,1.7,0.3,2.6,0.5c1.3,0.2,2.6,0.4,3.9,0.6c-7.1-1.3-14.4-2.9-21.7-7
			c-0.8,0.2-1.7,0.4-2.5,0.6C76,24,78.6,25,81.9,26C84.7,26.8,88,27.7,91.8,28.5z"/>
		<path class="st5" d="M101.9,37.7c1.5-0.2,3-0.5,4.7-0.9c6.5-1.5,11.7-1.8,15.7-1.2c-0.6-0.3-1.1-0.5-1.7-0.8
			c-7.2-2.9-14.6-3.9-22.2-5.2c-1.4-0.2-2.7-0.4-3.9-0.6c-0.9-0.2-1.8-0.3-2.6-0.5c-3.8-0.8-7.1-1.6-9.9-2.5c-3.3-1-5.9-2-7.8-2.7
			c-8.2,2.2-15.4,5.4-21.7,9.2c6.3-3.1,10.9-2.9,15.4-1.5c1.5,0.5,3,1.1,4.6,1.8c1.2,0.5,2.3,1,3.6,1.6
			C82.3,37,89.8,39.6,101.9,37.7z"/>
		<path class="st6" d="M138.3,37.7c-0.3-1.8-0.8-3.7-1.5-5.6c-0.3-0.9-0.7-1.8-1.1-2.7C122.5,0.3,75.4,25.4,53.6,0
			c7.7,11.6,15.4,18.4,23,22.6c7.3,4,14.6,5.7,21.7,7c0,0,0,0,0,0c7.6,1.4,15,2.3,22.2,5.2c0.6,0.2,1.2,0.5,1.7,0.8
			c18.8,8.9,8.7,26.8,8.6,26.9h0c0,0,4.1-3.7,6.4-10.4C138.6,48.2,139.3,43.4,138.3,37.7z"/>
	</g>
	<g>
		<path class="st7" d="M122.7,57c2.9,0,5.3,2.1,5.9,4.8c0.1-0.4,0.1-0.7,0.1-1.1c0-3.3-2.7-6-6-6c-3.3,0-6,2.7-6,6
			c0,0.4,0,0.8,0.1,1.1C117.3,59.1,119.8,57,122.7,57z"/>
		<path class="st0" d="M122.7,66.7c2.9,0,5.3-2.1,5.9-4.8c-0.5-2.8-2.9-4.8-5.9-4.8c-2.9,0-5.3,2.1-5.9,4.8
			C117.3,64.6,119.8,66.7,122.7,66.7z"/>
	</g>
</g>
</svg>
